<?xml version="1.0" encoding="UTF-8" standalone="no"?>
<DATA>
    <USER>
        <USERNAME>user4</USERNAME>
        <PASSWORD>user4</PASSWORD>
        <FRIEND>user1</FRIEND>
        <FRIEND>user2</FRIEND>
        <FRIEND>user3</FRIEND>
    </USER>
    <USER>
        <USERNAME>user2</USERNAME>
        <PASSWORD>user2</PASSWORD>
        <FRIEND>user4</FRIEND>
    </USER>
    <USER>
        <USERNAME>w</USERNAME>
        <PASSWORD>p</PASSWORD>
    </USER>
    <USER>
        <USERNAME>ghi</USERNAME>
        <PASSWORD>lmo</PASSWORD>
        <FRIEND>def</FRIEND>
    </USER>
    <USER>
        <USERNAME>useru</USERNAME>
        <PASSWORD>useru</PASSWORD>
    </USER>
    <USER>
        <USERNAME>William</USERNAME>
        <PASSWORD>mmm</PASSWORD>
    </USER>
    <USER>
        <USERNAME>def</USERNAME>
        <PASSWORD>mno</PASSWORD>
        <FRIEND>abc</FRIEND>
        <FRIEND>ghi</FRIEND>
    </USER>
    <USER>
        <USERNAME>user3</USERNAME>
        <PASSWORD>user3</PASSWORD>
        <FRIEND>user4</FRIEND>
    </USER>
    <USER>
        <USERNAME>user1</USERNAME>
        <PASSWORD>user1</PASSWORD>
        <FRIEND>user4</FRIEND>
    </USER>
    <USER>
        <USERNAME>abc</USERNAME>
        <PASSWORD>def</PASSWORD>
        <FRIEND>def</FRIEND>
    </USER>
</DATA>
